{
  "debug": false,
  "server": {
    "port": "5000"
  },
  "database": {
    "dsn": "postgres://postgres:postgres@0.0.0.0:5432/metabase_dashboard_db?sslmode=disable",
    "migrate_command": "/usr/local/bin/atlas migrate apply --url \"postgres://postgres:postgres@0.0.0.0:5432/metabase_dashboard_db?sslmode=disable\""
  },
  "notion": {
    "token": "...",
    "operations_page_id": "...",
    "income_expenses_page_id": "...",
    "dashboard_statistic_page_id": "...",
    "generator_dashboard_statistic_page_id": "..."
  }
}
