module nomas_smart_home_connector_server

go 1.21

require (
	github.com/LdDl/fiber-long-poll/v2 v2.2.4
	github.com/gofiber/fiber/v2 v2.51.0
	github.com/sirupsen/logrus v1.9.3
	github.com/valyala/fasthttp v1.51.0
)

require (
	github.com/andybalholm/brotli v1.0.5 // indirect
	github.com/google/uuid v1.4.0 // indirect
	github.com/klauspost/compress v1.17.0 // indirect
	github.com/mattn/go-colorable v0.1.13 // indirect
	github.com/mattn/go-isatty v0.0.20 // indirect
	github.com/mattn/go-runewidth v0.0.15 // indirect
	github.com/rivo/uniseg v0.2.0 // indirect
	github.com/valyala/bytebufferpool v1.0.0 // indirect
	github.com/valyala/tcplisten v1.0.0 // indirect
	golang.org/x/sys v0.14.0 // indirect
)
