{
  "debug": false,
  "iot": {
    "url": "http://localhost:8080",
    "max_timeout_seconds": 300,
    "device_id": "guid-device",
    "first_state_from_server": false
  },
  "channels": [
    {
      "name": "Открыть Steam (канал 5)",
      "channel": 1,
      "commands": [
        ""
      ],
      "url": "https://ya.ru"
    },
    {
      "name": "Открыть Youtube (канал 10)",
      "channel": 2,
      "commands": [
        ""
      ]
    }
  ]
}
